{
  "project_info": {
    "project_number": "918257280813",
    "project_id": "aos-hw04",
    "storage_bucket": "aos-hw04.appspot.com"
  },
  "client": [
    {
      "client_info": {
        "mobilesdk_app_id": "1:918257280813:android:b867e5312fbb9cd623d5a4",
        "android_client_info": {
          "package_name": "com.example.aos_hw04"
        }
      },
      "oauth_client": [
        {
          "client_id": "918257280813-k7klcsrc0l2foebbks68nieo76poqojf.apps.googleusercontent.com",
          "client_type": 1,
          "android_info": {
            "package_name": "com.example.aos_hw04",
            "certificate_hash": "2bc0539a1fe290b0f1e291faf48919f3359c9945"
          }
        },
        {
          "client_id": "918257280813-n9qo1ms77cr8u3pgoa53mfldk68ght4q.apps.googleusercontent.com",
          "client_type": 3
        }
      ],
      "api_key": [
        {
          "current_key": "AIzaSyDqP8Ne_0jqcI93JU8_c2Oshlnf93m1pT0"
        }
      ],
      "services": {
        "appinvite_service": {
          "other_platform_oauth_client": [
            {
              "client_id": "918257280813-n9qo1ms77cr8u3pgoa53mfldk68ght4q.apps.googleusercontent.com",
              "client_type": 3
            }
          ]
        }
      }
    }
  ],
  "configuration_version": "1"
}